%YAML 1.1
%TAG !u! tag:unity3d.com,2011:
--- !u!114 &11400000
MonoBehaviour:
  m_ObjectHideFlags: 0
  m_CorrespondingSourceObject: {fileID: 0}
  m_PrefabInstance: {fileID: 0}
  m_PrefabAsset: {fileID: 0}
  m_GameObject: {fileID: 0}
  m_Enabled: 1
  m_EditorHideFlags: 0
  m_Script: {fileID: 11500000, guid: 95e66c6366d904e98bc83428217d4fd7, type: 3}
  m_Name: Grafo HelloWorld
  m_EditorClassIdentifier: 
  _data:
    _json: '{"graph":{"variables":{"Kind":"Flow","collection":{"$content":[{"name":"mensaje","value":{"$content":"Helloo","$type":"System.String"},"typeHandle":{"Identification":"System.String,
      mscorlib, Version=4.0.0.0, Culture=neutral, PublicKeyToken=b77a5c561934e089","$version":"A"},"$version":"A"}],"$version":"A"},"$version":"A"},"controlInputDefinitions":[],"controlOutputDefinitions":[],"valueInputDefinitions":[],"valueOutputDefinitions":[],"title":null,"summary":null,"pan":{"x":-145.3259,"y":-42.70166},"zoom":1.0,"elements":[{"chainable":false,"parameterNames":["message"],"member":{"name":"print","parameterTypes":["System.Object"],"targetType":"UnityEngine.MonoBehaviour","targetTypeName":"UnityEngine.MonoBehaviour","$version":"A"},"defaultValues":{},"position":{"x":-26.0,"y":-57.0},"guid":"2779d429-2dc5-40da-a55c-c4baba46c34b","$version":"A","$type":"Unity.VisualScripting.InvokeMember","$id":"10"},{"coroutine":false,"defaultValues":{},"position":{"x":-446.0,"y":-203.0},"guid":"cf262bcc-8da6-4cc4-95af-f742adc6250c","$version":"A","$type":"Unity.VisualScripting.Update","$id":"14"},{"specifyFallback":false,"kind":"Graph","defaultValues":{"name":{"$content":"mensaje","$type":"System.String"}},"position":{"x":-506.0,"y":13.0},"guid":"d35804ab-8642-4e7c-a35f-9c8153e538d3","$version":"A","$type":"Unity.VisualScripting.GetVariable","$id":"16"},{"sourceUnit":{"$ref":"14"},"sourceKey":"trigger","destinationUnit":{"$ref":"10"},"destinationKey":"enter","guid":"4e012374-4490-4126-92d4-728b6f1c4b0a","$type":"Unity.VisualScripting.ControlConnection"},{"sourceUnit":{"$ref":"16"},"sourceKey":"value","destinationUnit":{"$ref":"10"},"destinationKey":"%message","guid":"4637f2c2-55de-4e15-b9bc-e56aac6fe20e","$type":"Unity.VisualScripting.ValueConnection"}],"$version":"A"}}'
    _objectReferences: []
